{
  "processing_ticks": 200,
  "ingredients": [
    {
      "item": "minecraft:iron_ingot"
    },
    {
      "item": "minecraft:iron_ingot"
    },
    {
      "item": "tardis:circuits"
    },
    {
      "item": "tardis:mercury_bottle"
    }
  ],
  "result": {
    "item": "tardis:subsystem/fluid_link"
  },
  "repair": false,
  "type": "tardis:quantiscope"
}