{
  "processing_ticks": 200,
  "ingredients": [
    {
      "item": "tardis:xion_crystal"
    },
    {
      "item": "tardis:circuits"
    },
    {
      "item": "minecraft:glass_pane"
    },
    {
      "item": "minecraft:iron_ingot"
    },
    {
      "item": "minecraft:redstone_block"
    }
  ],
  "result": {
    "item": "tardis:subsystem/interstitial_antenna"
  },
  "repair": false,
  "type": "tardis:quantiscope"
}