{
  "name": "tardis:village/observatory_savanna",
  "fallback": "tardis:village/observatory_savanna",
  "elements": [
    {
      "weight": 1,
      "element": {
        "location": "tardis:village/savanna/houses/savanna_observatory",
        "processors": "minecraft:mossify_10_percent",
        "projection": "rigid",
        "element_type": "minecraft:legacy_single_pool_element"
      }
    },
    {
      "weight": 1,
      "element": {
        "location": "minecraft:village/savanna/houses/savanna_medium_house_1",
        "processors": "minecraft:empty",
        "projection": "rigid",
        "element_type": "minecraft:legacy_single_pool_element"
      }
    },
    {
      "weight": 1,
      "element": {
        "location": "minecraft:village/savanna/houses/savanna_medium_house_1",
        "processors": "minecraft:empty",
        "projection": "rigid",
        "element_type": "minecraft:legacy_single_pool_element"
      }
    }
  ]
}