{
    "parent": "block/inner_stairs",
    "textures": {
        "bottom": "tardis:block/technology/tungsten",
        "top": "tardis:block/technology/tungsten",
        "side": "tardis:block/technology/tungsten"
    }
}
