{
  "type":"normal",
  "text":"Atrium Module. An Upgrade to the deamaterialization circuit. The Atrium Module allows you to build an exterior atrium for your time-ship that travels with it. The Atrium area must be square of a maximum size no larger than 11 blocks across, centered on the time-ship's door. The area is defined using Atrium Blocks to build a baseplate platform under the structure. Using the Atrium module limits available landing areas for a time-ship. A time-ship will not land in a location that does not provide adequate open area for it to materialize."
}