{
	"type": "tardis:quantiscope",
	"repair": false,
	"ingredients":[
		{"item":"minecraft:stone_button"},
		{"item":"minecraft:stone_button"},
		{"item":"tardis:circuits"},
		{"item":"minecraft:iron_ingot"}
	],
	"result":{
		"item":"tardis:monitor_remote"
	}
}