{
  "type":"normal",
  "text":"Temporal Grace Circuit. This is the circuit responsible for keeping you capsule in a state of temporal grace. It also saves beings from falling beneath the void of the interior dimension."
}