{
  "type": "normal",
  "text": "Timeship Loyalty. The loyalty aspect describes how much your Timeship respects you, which affects it will treat you. This aspect cannot be changed easily, much like humanoid pyschology. Loyalty can be inferred through the actions of your Timeship. E.g. A loyal Timeship will allow you access to administrative tasks such as changing the interior. Additionally, a loyal Timeship will attempt to save its pilot from death if the latter is mortally wounded."
}