{
  "processing_ticks": 200,
  "ingredients": [
    {
      "item": "tardis:artron_battery"
    },
    {
      "item": "tardis:xion_crystal"
    },
    {
      "item": "minecraft:glass"
    },
    {
      "item": "tardis:circuits"
    }
  ],
  "result": {
    "item": "tardis:diagnostic_tool"
  },
  "repair": false,
  "type": "tardis:quantiscope"
}