{
  "processing_ticks": 200,
  "ingredients": [
    {
      "item": "tardis:int_door"
    },
    {
      "item": "minecraft:gold_nugget"
    },
    {
      "item": "minecraft:redstone"
    },
    {
      "item": "tardis:circuits"
    },
    {
      "item": "minecraft:ender_pearl"
    }
  ],
  "result": {
    "item": "tardis:timeship_backdoor"
  },
  "repair": false,
  "type": "tardis:quantiscope"
}