{
  "textures": [
    "tardis:bubble/bubble_redux11",
    "tardis:bubble/bubble_redux12",
    "tardis:bubble/bubble_redux13",
    "tardis:bubble/bubble_redux14",
    "tardis:bubble/bubble_redux15",
    "tardis:bubble/bubble_redux16",
    "tardis:bubble/bubble_redux17",
    "tardis:bubble/bubble_redux18",
    "tardis:bubble/bubble_redux19",
    "tardis:bubble/bubble_redux20",
    "tardis:bubble/bubble_redux21",
    "tardis:bubble/bubble_redux22",
    "tardis:bubble/bubble_redux23",
    "tardis:bubble/bubble_redux24",
    "tardis:bubble/bubble_redux25",
    "tardis:bubble/bubble_redux26",
    "tardis:bubble/bubble_redux27",
    "tardis:bubble/bubble_redux28",
    "tardis:bubble/bubble_redux29",
    "tardis:bubble/bubble_redux30",
    "tardis:bubble/bubble_redux31",
    "tardis:bubble/bubble_redux32",
    "tardis:bubble/bubble_redux33",
    "tardis:bubble/bubble_redux34",
    "tardis:bubble/bubble_redux35",
    "tardis:bubble/bubble_redux36",
    "tardis:bubble/bubble_redux37",
    "tardis:bubble/bubble_redux38",
    "tardis:bubble/bubble_redux39",
    "tardis:bubble/bubble_redux40",
    "tardis:bubble/bubble_redux41",
    "tardis:bubble/bubble_redux42",
    "tardis:bubble/bubble_redux43",
    "tardis:bubble/bubble_redux44",
    "tardis:bubble/bubble_redux45",
    "tardis:bubble/bubble_redux46",
    "tardis:bubble/bubble_redux47",
    "tardis:bubble/bubble_redux48",
    "tardis:bubble/bubble_redux49",
    "tardis:bubble/bubble_redux50",
    "tardis:bubble/bubble_redux51",
    "tardis:bubble/bubble_redux52",
    "tardis:bubble/bubble_redux53",
    "tardis:bubble/bubble_redux54",
    "tardis:bubble/bubble_redux55",
    "tardis:bubble/bubble_redux56",
    "tardis:bubble/bubble_redux57",
    "tardis:bubble/bubble_redux58",
    "tardis:bubble/bubble_redux59",
    "tardis:bubble/bubble_redux60",
    "tardis:bubble/bubble_redux61",
    "tardis:bubble/bubble_redux62",
    "tardis:bubble/bubble_redux63",
    "tardis:bubble/bubble_redux64",
    "tardis:bubble/bubble_redux65",
    "tardis:bubble/bubble_redux66",
    "tardis:bubble/bubble_redux67",
    "tardis:bubble/bubble_redux68",
    "tardis:bubble/bubble_redux69",
    "tardis:bubble/bubble_redux70"
  ]
}